DATE_OF_INTEREST,Cases,Hospitalizations,Deaths
02/29/2020,1,14,0
3/1/20,1,4,0
3/2/20,0,23,0
3/3/20,2,22,0
3/4/20,5,22,0
3/5/20,3,21,0
3/6/20,8,23,0
3/7/20,7,16,0
3/8/20,21,17,0
3/9/20,58,52,0
3/10/20,70,65,0
3/11/20,155,87,1
3/12/20,357,90,0
03/13/2020,620,148,0
03/14/2020,642,158,2
03/15/2020,1033,192,5
03/16/2020,2122,309,9
03/17/2020,2457,353,8
03/18/2020,2980,464,20
03/19/2020,3712,551,24
03/20/2020,4013,662,46
03/21/2020,2639,687,45
03/22/2020,2580,724,50
03/23/2020,3567,1033,82
03/24/2020,4497,1142,94
03/25/2020,4840,1297,120
03/26/2020,5025,1423,186
03/27/2020,5097,1380,212
03/28/2020,3458,1337,265
03/29/2020,3526,1384,286
03/30/2020,6114,1691,321
03/31/2020,5433,1628,372
4/1/20,5436,1545,431
4/2/20,5753,1592,486
4/3/20,5659,1600,482
4/4/20,3856,1330,488
4/5/20,3776,1322,565
4/6/20,6368,1694,564
4/7/20,6053,1567,590
4/8/20,5563,1521,544
4/9/20,5039,1402,534
4/10/20,4498,1317,517
4/11/20,3710,1079,523
4/12/20,2870,979,555
04/13/2020,3300,1205,550
04/14/2020,4131,1065,503
04/15/2020,3866,971,436
04/16/2020,3517,857,399
04/17/2020,3574,895,366
04/18/2020,2164,648,360
04/19/2020,2349,592,373
04/20/2020,3776,717,348
04/21/2020,3055,648,306
04/22/2020,3458,597,298
04/23/2020,2844,517,307
04/24/2020,2537,555,297
04/25/2020,1593,405,239
04/26/2020,1006,376,231
04/27/2020,2307,443,255
04/28/2020,2723,441,217
04/29/2020,2341,405,228
04/30/2020,2016,334,206
5/1/20,1881,343,201
5/2/20,1057,270,186
5/3/20,782,253,166
5/4/20,1548,289,148
5/5/20,1508,264,140
5/6/20,1402,255,136
5/7/20,1238,234,129
5/8/20,1086,248,120
5/9/20,671,164,99
5/10/20,460,140,90
5/11/20,1232,241,97
5/12/20,1286,202,85
05/13/2020,1332,202,72
05/14/2020,1109,183,63
05/15/2020,869,201,83
05/16/2020,489,140,72
05/17/2020,363,114,67
05/18/2020,904,142,46
05/19/2020,995,175,50
05/20/2020,1029,91,72
05/21/2020,1022,82,38
05/22/2020,986,110,50
05/23/2020,444,61,47
05/24/2020,459,75,36
05/25/2020,438,63,27